1RETENSI : RA.1B/6B/2T                                LAPORAN PEMBAYARAN VIA ELECTRONIC BANKING                  FREKWENSI : HARIAN
 LAPORAN : R-5036                                          UNTUK PERUSAHAAN                                      TANGGAL   : 08/04/15
 CABANG  : 0005270-KCP BINA NUSANTARA                                                                            HALAMAN   :        1
 NAMA PERUSAHAAN : 0007010-YAYASAN BINA NUSANTARA
 ====================================================================================================================================
 NOMOR URUT        NOMOR PENGENAL          NAMA  /  IDENTITAS                NILAI  TRANSAKSI        TGL.TXN        WAKTU      LOKASI
 ------------------------------------------------------------------------------------------------------------------------------------
          1       1511066                  RISNA YULINDA                        33.150.000,00       08/04/15     13:36:15       703H1
          2       1514104                  FREDRIK CHRISTO LE                   33.150.000,00       08/04/15     10:21:31       77591
          3       1514105                  INDIRA MIRANTI                       22.500.000,00       08/04/15     09:03:29       77591
0                    ----------------------------------------------------------------------------------------------------------------
                              TOTAL - TRANSAKSI :          3   JUMLAH :         88.800.000,00          KOMISI :              7.500,00
 ====================================================================================================================================
0                    ----------------------------------------------------------------------------------------------------------------
                          CHECK SUM PERUSAHAAN  :          3.672.428
 ====================================================================================================================================
